Exploring Thompsons Creek Stage Discharge Data
…
## attach units to our columns
units(hobo_df$Water_Level) <- as_units("ft")
units(hobo_df$Temp) <- as_units("°F")
units(hobo_df$Abs_Pres) <- as_units("psi")

hobo_df

## # A tibble: 71,447 x 5
##    Abs_Pres   Temp Water_Level Site  Date_Time          
##       [psi]   [°F]        [ft] <fct> <dttm>             
##  1  14.4270 76.006       0.392 16396 2020-03-02 15:17:19
##  2  14.4237 75.659       0.388 16396 2020-03-02 15:32:19
##  3  14.4272 75.312       0.399 16396 2020-03-02 15:47:19
##  4  14.4192 74.964       0.391 16396 2020-03-02 16:02:19
##  5  14.4165 74.791       0.379 16396 2020-03-02 16:17:19
##  6  14.4153 74.446       0.361 16396 2020-03-02 16:32:19
##  7  14.4172 74.271       0.364 16396 2020-03-02 16:47:19
##  8  14.4166 74.098       0.363 16396 2020-03-02 17:02:19
##  9  14.4207 73.926       0.372 16396 2020-03-02 17:17:19
## 10  14.4270 73.753       0.376 16396 2020-03-02 17:32:19
## # … with 71,437 more rows
…
## attach units to our columns
units(iqplus_df$Depth) <- as_units("ft")
units(iqplus_df$Flow) <- as_units("ft^3/s")

iqplus_df

## # A tibble: 26,174 x 6
##    Date_Time              Depth     Flow System_In_Water System_Status Site 
##    <dttm>                  [ft] [ft^3/s]           <dbl>         <dbl> <chr>
##  1 2020-05-12 16:58:00 1.758559 17.25626             100             0 16396
##  2 2020-05-12 17:13:00 1.867973 20.86921             100             0 16396
##  3 2020-05-12 17:28:00 2.006131 27.27231             100             0 16396
##  4 2020-05-12 17:43:00 2.119382 31.04828             100             0 16396
##  5 2020-05-12 17:58:00 2.172015 33.71041             100             0 16396
##  6 2020-05-12 18:13:00 2.228058 36.78339             100             0 16396
##  7 2020-05-12 18:28:00 2.350440 44.18084             100             0 16396
##  8 2020-05-12 18:43:00 2.508431 51.30917             100             0 16396
##  9 2020-05-12 18:58:00 2.674151 60.84247             100             0 16396
## 10 2020-05-12 19:13:00 2.809936 69.92496             100             0 16396
## # … with 26,164 more rows
…
